{
  "implemented": true,
  "name": "Natu",
  "nationalPokedexNumber": 177,
  "primaryType": "psychic",
  "secondaryType": "flying",
  "abilities": [
    "synchronize",
    "earlybird",
    "h:magicbounce"
  ],
  "baseStats": {
    "hp": 40,
    "attack": 50,
    "defence": 45,
    "special_attack": 70,
    "special_defence": 45,
    "speed": 70
  },
  "behaviour": {
    "resting": {
      "canSleep": true,
      "willSleepOnBed": true
    }
  },
  "catchRate": 190,
  "maleRatio": 0.5,
  "shoulderMountable": false,
  "baseExperienceYield": 64,
  "experienceGroup": "medium_fast",
  "eggCycles": 20,
  "eggGroups": [
    "flying"
  ],
  "drops": {
    "amount": "3",
    "entries": [
      {
        "item": "minecraft:feather",
        "percentage": 50
      },
      {
        "item": "minecraft:chicken"
      },
      {
        "item": "cobblemon:wise_glasses",
        "percentage": 2.5
      }
    ]
  },
  "moves": [
    "1:leer",
    "1:peck",
    "5:storedpower",
    "10:teleport",
    "12:luckychant",
    "15:confuseray",
    "20:nightshade",
    "20:ominouswind",
    "26:psychoshift",
    "30:powerswap",
    "35:guardswap",
    "35:psychic",
    "36:miracleeye",
    "40:wish",
    "45:futuresight",
    "50:mefirst",
    "egg:allyswitch",
    "egg:drillpeck",
    "egg:featherdance",
    "egg:feintattack",
    "egg:haze",
    "egg:psychup",
    "egg:quickattack",
    "egg:refresh",
    "egg:roost",
    "egg:simplebeam",
    "egg:skillswap",
    "egg:steelwing",
    "egg:suckerpunch",
    "egg:synchronoise",
    "egg:zenheadbutt",
    "tm:aerialace",
    "tm:airslash",
    "tm:allyswitch",
    "tm:attract",
    "tm:batonpass",
    "tm:calmmind",
    "tm:captivate",
    "tm:confide",
    "tm:cosmicpower",
    "tm:dazzlinggleam",
    "tm:doubleteam",
    "tm:dreameater",
    "tm:endure",
    "tm:facade",
    "tm:flash",
    "tm:frustration",
    "tm:futuresight",
    "tm:gigadrain",
    "tm:grassknot",
    "tm:guardswap",
    "tm:heatwave",
    "tm:hiddenpower",
    "tm:imprison",
    "tm:lightscreen",
    "tm:magicroom",
    "tm:naturalgift",
    "tm:pluck",
    "tm:powerswap",
    "tm:protect",
    "tm:psychic",
    "tm:psychup",
    "tm:psyshock",
    "tm:raindance",
    "tm:reflect",
    "tm:rest",
    "tm:return",
    "tm:roost",
    "tm:round",
    "tm:secretpower",
    "tm:shadowball",
    "tm:silverwind",
    "tm:skillswap",
    "tm:sleeptalk",
    "tm:snore",
    "tm:solarbeam",
    "tm:steelwing",
    "tm:storedpower",
    "tm:substitute",
    "tm:sunnyday",
    "tm:swagger",
    "tm:swift",
    "tm:telekinesis",
    "tm:thief",
    "tm:thunderwave",
    "tm:toxic",
    "tm:trick",
    "tm:trickroom",
    "tm:uturn",
    "tm:zenheadbutt",
    "tutor:aerialace",
    "tutor:aircutter",
    "tutor:allyswitch",
    "tutor:attract",
    "tutor:batonpass",
    "tutor:confuseray",
    "tutor:curse",
    "tutor:detect",
    "tutor:doubleedge",
    "tutor:doubleteam",
    "tutor:dreameater",
    "tutor:drillpeck",
    "tutor:dualwingbeat",
    "tutor:endure",
    "tutor:expandingforce",
    "tutor:featherdance",
    "tutor:feintattack",
    "tutor:flash",
    "tutor:frustration",
    "tutor:futuresight",
    "tutor:gigadrain",
    "tutor:haze",
    "tutor:heatwave",
    "tutor:hiddenpower",
    "tutor:leer",
    "tutor:magiccoat",
    "tutor:magicroom",
    "tutor:mimic",
    "tutor:nightmare",
    "tutor:nightshade",
    "tutor:ominouswind",
    "tutor:painsplit",
    "tutor:peck",
    "tutor:protect",
    "tutor:psychic",
    "tutor:psychup",
    "tutor:quickattack",
    "tutor:rest",
    "tutor:return",
    "tutor:roost",
    "tutor:signalbeam",
    "tutor:skillswap",
    "tutor:skyattack",
    "tutor:sleeptalk",
    "tutor:snore",
    "tutor:solarbeam",
    "tutor:steelwing",
    "tutor:substitute",
    "tutor:suckerpunch",
    "tutor:sunnyday",
    "tutor:swagger",
    "tutor:swift",
    "tutor:tailwind",
    "tutor:telekinesis",
    "tutor:teleport",
    "tutor:thief",
    "tutor:thunderwave",
    "tutor:toxic",
    "tutor:trick",
    "tutor:twister",
    "tutor:zenheadbutt"
  ],
  "labels": [
    "gen2"
  ],
  "pokedex": [
    "cobblemon.species.natu.desc"
  ],
  "evolutions": [
    {
      "id": "natu_xatu",
      "variant": "level_up",
      "result": "xatu",
      "consumeHeldItem": false,
      "learnableMoves": [
        "airslash"
      ],
      "requirements": [
        {
          "variant": "level",
          "minLevel": 25
        }
      ]
    }
  ],
  "baseScale": 1,
  "hitbox": {
    "width": 0.5,
    "height": 0.5,
    "fixed": false
  },
  "baseFriendship": 50,
  "evYield": {
    "hp": 0,
    "attack": 0,
    "defence": 0,
    "special_attack": 1,
    "special_defence": 0,
    "speed": 0
  },
  "height": 2,
  "weight": 20,
  "aspects": [],
  "cannotDynamax": false
}