{
	"format_version": "1.8.0",
	"animations": {
		"animation.wingull.ground_idle": {
			"loop": true,
			"bones": {
				"wing_left": {
					"rotation": [0, 0, -47.5]
				},
				"wing_left2": {
					"rotation": [0, 0, 110]
				},
				"tail": {
					"rotation": [45, 0, 0]
				},
				"wing_right": {
					"rotation": [0, 0, 47.5]
				},
				"wing_right2": {
					"rotation": [0, 0, -110]
				}
			}
		},
		"animation.wingull.blink": {
			"animation_length": 0.1667,
			"bones": {
				"eyelid_left": {
					"position": {
						"0.0": [0, 0, -0.1],
						"0.125": [0, 0, -0.1],
						"0.1667": [0, 0, 0]
					}
				},
				"eyelid_right": {
					"position": {
						"0.0": [0, 0, -0.1],
						"0.125": [0, 0, -0.1],
						"0.1667": [0, 0, 0]
					}
				}
			}
		},
		"animation.wingull.cry": {
			"animation_length": 1.5,
			"bones": {
				"neck": {
					"rotation": {
						"0.0": [0, 0, 0],
						"0.25": [10, 0, 0],
						"1.25": [10, 0, 0],
						"1.5": [0, 0, 0]
					}
				},
				"head": {
					"rotation": {
						"0.0": [0, 0, 0],
						"0.25": [-15, 0, 0],
						"1.25": [-15, 0, 0],
						"1.5": [0, 0, 0]
					}
				},
				"jaw": {
					"rotation": {
						"0.0": [0, 0, 0],
						"0.25": [17.5, 0, 0],
						"1.25": [17.5, 0, 0],
						"1.5": [0, 0, 0]
					}
				}
			}
		}
	}
}