{
  "implemented": true,
  "name": "Maushold",
  "nationalPokedexNumber": 925,
  "primaryType": "normal",
  "abilities": [
    "friendguard",
    "cheekpouch",
    "h:technician"
  ],
  "baseStats": {
    "hp": 74,
    "attack": 75,
    "defence": 70,
    "special_attack": 65,
    "special_defence": 75,
    "speed": 111
  },
  "behaviour": {
    "resting": {
      "canSleep": true,
      "willSleepOnBed": true,
      "depth": "normal",
      "light": "0-4"
    }
  },
  "catchRate": 75,
  "maleRatio": -1,
  "baseExperienceYield": 165,
  "baseFriendship": 50,
  "evYield": {
    "hp": 0,
    "attack": 0,
    "defence": 0,
    "special_attack": 0,
    "special_defence": 0,
    "speed": 2
  },
  "experienceGroup": "fast",
  "eggCycles": 10,
  "eggGroups": [
    "field",
    "fairy"
  ],
  "moves": [
    "1:babydolleyes",
    "1:followme",
    "1:pound",
    "1:tidyup",
    "5:echoedvoice",
    "8:helpinghand",
    "11:superfang",
    "14:doublehit",
    "18:bulletseed",
    "22:encore",
    "29:playrough",
    "33:hypervoice",
    "37:charm",
    "41:beatup",
    "46:copycat",
    "53:populationbomb",
    "tm:aerialace",
    "tm:agility",
    "tm:bulletseed",
    "tm:charm",
    "tm:chillingwater",
    "tm:crunch",
    "tm:dig",
    "tm:encore",
    "tm:endure",
    "tm:facade",
    "tm:faketears",
    "tm:gigaimpact",
    "tm:grassknot",
    "tm:helpinghand",
    "tm:hyperbeam",
    "tm:hypervoice",
    "tm:lowkick",
    "tm:lowsweep",
    "tm:mudshot",
    "tm:mudslap",
    "tm:playrough",
    "tm:protect",
    "tm:raindance",
    "tm:rest",
    "tm:seedbomb",
    "tm:shadowclaw",
    "tm:sleeptalk",
    "tm:substitute",
    "tm:sunnyday",
    "tm:swift",
    "tm:takedown",
    "tm:taunt",
    "tm:terablast",
    "tm:thief",
    "tm:thunderwave",
    "tm:trailblaze",
    "tm:uturn",
    "tm:waterpulse"
  ],
  "baseScale": 0.5,
  "hitbox": {
    "width": 1.25,
    "height": 0.75,
    "fixed": false
  },
  "labels": [
    "gen9"
  ],
  "aspects": [
    "maushold-family-three"
  ],
  "height": 3,
  "weight": 23,
  "preEvolution": "tandemaus",
  "evolutions": [],
  "cannotDynamax": false,
  "forms": [
    {
      "name": "Four",
      "primaryType": "normal",
      "abilities": [
        "friendguard",
        "cheekpouch",
        "h:technician"
      ],
      "baseStats": {
        "hp": 74,
        "attack": 75,
        "defence": 70,
        "special_attack": 65,
        "special_defence": 75,
        "speed": 111
      },
      "catchRate": 75,
      "maleRatio": -1,
      "baseFriendship": 50,
      "evYield": {
        "hp": 0,
        "attack": 0,
        "defence": 0,
        "special_attack": 0,
        "special_defence": 0,
        "speed": 2
      },
      "experienceGroup": "fast",
      "eggCycles": 10,
      "eggGroups": [
        "field",
        "fairy"
      ],
      "moves": [
        "1:babydolleyes",
        "1:followme",
        "1:pound",
        "1:tidyup",
        "5:echoedvoice",
        "8:helpinghand",
        "11:superfang",
        "14:doublehit",
        "18:bulletseed",
        "22:encore",
        "29:playrough",
        "33:hypervoice",
        "37:charm",
        "41:beatup",
        "46:copycat",
        "53:populationbomb",
        "tm:aerialace",
        "tm:agility",
        "tm:bulletseed",
        "tm:charm",
        "tm:chillingwater",
        "tm:crunch",
        "tm:dig",
        "tm:encore",
        "tm:endure",
        "tm:facade",
        "tm:faketears",
        "tm:gigaimpact",
        "tm:grassknot",
        "tm:helpinghand",
        "tm:hyperbeam",
        "tm:hypervoice",
        "tm:lowkick",
        "tm:lowsweep",
        "tm:mudshot",
        "tm:mudslap",
        "tm:playrough",
        "tm:protect",
        "tm:raindance",
        "tm:rest",
        "tm:seedbomb",
        "tm:shadowclaw",
        "tm:sleeptalk",
        "tm:substitute",
        "tm:sunnyday",
        "tm:swift",
        "tm:takedown",
        "tm:taunt",
        "tm:terablast",
        "tm:thief",
        "tm:thunderwave",
        "tm:trailblaze",
        "tm:uturn",
        "tm:waterpulse"
      ],
      "labels": [
        "gen9"
      ],
      "aspects": [
        "maushold-family-four"
      ],
      "height": 3,
      "weight": 28,
      "preEvolution": "tandemaus",
      "evolutions": [],
      "cannotDynamax": false,
      "battleOnly": false
    }
  ],
  "pokedex": [
    "cobblemon.species.maushold.desc"
  ]
}