{
  "implemented": true,
  "name": "Chatot",
  "nationalPokedexNumber": 441,
  "primaryType": "normal",
  "secondaryType": "flying",
  "abilities": [
    "keeneye",
    "tangledfeet",
    "h:bigpecks"
  ],
  "baseStats": {
    "hp": 76,
    "attack": 65,
    "defence": 45,
    "special_attack": 92,
    "special_defence": 42,
    "speed": 91
  },
  "catchRate": 30,
  "maleRatio": 0.5,
  "shoulderMountable": true,
  "baseExperienceYield": 144,
  "experienceGroup": "medium_slow",
  "eggCycles": 20,
  "eggGroups": [
    "flying"
  ],
  "behaviour": {
    "moving": {
      "fly": {
        "canFly": true
      }
    }
  },
  "moves": [
    "1:chatter",
    "1:confide",
    "1:hypervoice",
    "1:peck",
    "1:taunt",
    "5:growl",
    "9:mirrormove",
    "13:sing",
    "17:furyattack",
    "21:chatter",
    "25:taunt",
    "29:mimic",
    "29:round",
    "33:mimic",
    "33:roost",
    "37:echoedvoice",
    "37:uproar",
    "41:featherdance",
    "41:roost",
    "45:hypervoice",
    "45:uproar",
    "49:synchronoise",
    "50:featherdance",
    "53:featherdance",
    "57:hypervoice",
    "egg:agility",
    "egg:aircutter",
    "egg:boomburst",
    "egg:defog",
    "egg:encore",
    "egg:nastyplot",
    "egg:nightshade",
    "egg:sleeptalk",
    "egg:steelwing",
    "egg:supersonic",
    "tm:aerialace",
    "tm:attract",
    "tm:captivate",
    "tm:confide",
    "tm:defog",
    "tm:doubleteam",
    "tm:echoedvoice",
    "tm:endure",
    "tm:facade",
    "tm:fly",
    "tm:frustration",
    "tm:hiddenpower",
    "tm:naturalgift",
    "tm:pluck",
    "tm:protect",
    "tm:raindance",
    "tm:rest",
    "tm:return",
    "tm:roost",
    "tm:round",
    "tm:secretpower",
    "tm:sleeptalk",
    "tm:steelwing",
    "tm:substitute",
    "tm:sunnyday",
    "tm:swagger",
    "tm:taunt",
    "tm:thief",
    "tm:torment",
    "tm:toxic",
    "tm:uturn",
    "tm:workup",
    "tutor:aircutter",
    "tutor:chatter",
    "tutor:defog",
    "tutor:furyattack",
    "tutor:heatwave",
    "tutor:hypervoice",
    "tutor:mirrormove",
    "tutor:mudslap",
    "tutor:nastyplot",
    "tutor:ominouswind",
    "tutor:roleplay",
    "tutor:roost",
    "tutor:skyattack",
    "tutor:sleeptalk",
    "tutor:snore",
    "tutor:swift",
    "tutor:tailwind",
    "tutor:taunt",
    "tutor:twister",
    "tutor:uproar"
  ],
  "labels": [
    "gen4"
  ],
  "pokedex": [
    "cobblemon.species.chatot.desc"
  ],
  "evolutions": [],
  "baseScale": 0.9,
  "hitbox": {
    "width": 0.5,
    "height": 0.8,
    "fixed": false
  },
  "baseFriendship": 35,
  "evYield": {
    "hp": 0,
    "attack": 1,
    "defence": 0,
    "special_attack": 0,
    "special_defence": 0,
    "speed": 0
  },
  "height": 5,
  "weight": 19,
  "aspects": [],
  "cannotDynamax": false
}