{
	"format_version": "1.8.0",
	"animations": {
		"animation.brionne.ground_idle": {
			"loop": true,
			"animation_length": 4,
			"bones": {
				"brionne": {
					"rotation": [-37.5, 0, 0],
					"position": [0, 2, -6]
				},
				"body": {
					"rotation": ["67.5-2*math.sin(q.anim_time*90*2)", 0, "1*math.sin(q.anim_time*90*2)"],
					"position": [0, -6, 0]
				},
				"head": {
					"rotation": ["-25+3*math.sin(q.anim_time*90*2-70)", "1*math.sin(q.anim_time*90*2-70)", "1*math.sin(q.anim_time*90*2-70)"],
					"position": [0, -0.5, 0.25]
				},
				"ear_right": {
					"rotation": ["-5.3966-5*math.sin(q.anim_time*90*2-70)", 38.1507, "-21.6328+5*math.sin(q.anim_time*90*2-70)"]
				},
				"ear_right2": {
					"rotation": [-15, 0, "-10*math.sin(q.anim_time*90*2)"]
				},
				"ear_right3": {
					"rotation": [-29, 0, "-10*math.sin(q.anim_time*90*2)"]
				},
				"ear_left": {
					"rotation": ["-5.3966+5*math.sin(q.anim_time*90*2-70)", -38.15075, "21.6328+5*math.sin(q.anim_time*90*2-70)"]
				},
				"ear_left2": {
					"rotation": [-15, 0, "-10*math.sin(q.anim_time*90*2)"]
				},
				"ear_left3": {
					"rotation": [-20, 0, "-10*math.sin(q.anim_time*90*2)"]
				},
				"torso": {
					"rotation": [0, 0, 0]
				},
				"tail": {
					"rotation": ["12.5+2*math.sin(q.anim_time*90*2)", 0, "-10*math.sin(q.anim_time*90*1)"]
				},
				"tail2": {
					"rotation": [37.41159, 0.9339, "-0.0383-5*math.sin(q.anim_time*90*1)"]
				},
				"tail3": {
					"rotation": [-5, 0, "-10*math.sin(q.anim_time*90*1)"]
				},
				"arm_right": {
					"rotation": ["40.4753-1*math.sin(q.anim_time*90*2-20)", "-62.9692-2*math.sin(q.anim_time*90*2)", -45.10039],
					"position": [0, 0.25, -0.5]
				},
				"arm_right2": {
					"rotation": [0, 0, "-25-4*math.sin(q.anim_time*90*2)"]
				},
				"arm_right3": {
					"rotation": [0, 0, "57.5-2*math.sin(q.anim_time*90*2)"]
				},
				"arm_left": {
					"rotation": ["40.4753-2*math.sin(q.anim_time*90*2)", "62.9692-2*math.sin(q.anim_time*90*2)", 45.10039],
					"position": [0, 0.25, -0.5]
				},
				"arm_left2": {
					"rotation": [0, 0, 25]
				},
				"arm_left3": {
					"rotation": [0, 0, "-55+2*math.sin(q.anim_time*90*2)"]
				},
				"ruff_right": {
					"rotation": ["132.5-4*math.sin(q.anim_time*90*2-50)", -12.5, 120]
				},
				"ruff_front": {
					"rotation": [22.5, 0, 0],
					"position": [0, -0.5, 0]
				},
				"ruff_left": {
					"rotation": ["137.5-4*math.sin(q.anim_time*90*2-50)", 10, -120]
				},
				"ruff_front2": {
					"rotation": [7.5, 0, 0]
				},
				"ruff_front3": {
					"rotation": ["-32.5+5*math.sin(q.anim_time*90*2-20)", 0, 0]
				},
				"nose": {
					"rotation": [0, 0, "-2*math.sin(q.anim_time*90*2-20)"]
				},
				"tail_right": {
					"rotation": ["22.5+4*math.sin(q.anim_time*90*2)", 0, 0]
				},
				"tail_left": {
					"rotation": ["22.5-4*math.sin(q.anim_time*90*2)", 0, 0]
				},
				"ruff_back": {
					"rotation": ["-4*math.sin(q.anim_time*90*2-50)", 0, 0]
				},
				"ruff_right2": {
					"rotation": ["-4*math.sin(q.anim_time*90*2-70)", 0, 0]
				},
				"ruff_left2": {
					"rotation": ["-4*math.sin(q.anim_time*90*2-70)", 0, 0]
				},
				"ruff_back2": {
					"rotation": ["-4*math.sin(q.anim_time*90*2-70)", 0, 0]
				},
				"ruff_right3": {
					"rotation": ["-4*math.sin(q.anim_time*90*2-90)", 0, 0]
				},
				"ruff_left3": {
					"rotation": ["-4*math.sin(q.anim_time*90*2-90)", 0, 0]
				},
				"ruff_back3": {
					"rotation": ["-4*math.sin(q.anim_time*90*2-90)", 0, 0]
				}
			}
		},
		"animation.brionne.ground_walk": {
			"loop": true,
			"animation_length": 4,
			"bones": {
				"brionne": {
					"rotation": [-37.5, 0, 0],
					"position": [0, 2, -6]
				},
				"body": {
					"rotation": ["67.5+10*math.sin(q.anim_time*90*3-40)+2*math.sin(q.anim_time*90*6-20)", "1*math.sin(q.anim_time*90*5)", "1*math.sin(q.anim_time*90*3)"],
					"position": [0, "-6-1*math.sin(q.anim_time*90*3)+0.3*math.sin(q.anim_time*90*4)", "2*math.sin(q.anim_time*90*3)"]
				},
				"head": {
					"rotation": ["-25-10*math.sin(q.anim_time*90*3-70)", "1*math.sin(q.anim_time*90*3-70)", "1*math.sin(q.anim_time*90*3-70)"],
					"position": [0, -0.5, 0.25]
				},
				"ear_right": {
					"rotation": ["-12.1565+5*math.sin(q.anim_time*90*3-70)", "12.209-10*math.sin(q.anim_time*90*3+50)", "-4.356-10*math.sin(q.anim_time*90*3-70)"]
				},
				"ear_right2": {
					"rotation": [-32.5, 0, "10*math.sin(q.anim_time*90*2)"]
				},
				"ear_right3": {
					"rotation": [-32.5, 0, "10*math.sin(q.anim_time*90*2)"]
				},
				"ear_left": {
					"rotation": ["-10.3192-5*math.sin(q.anim_time*90*3-70)", "-7.5274-10*math.sin(q.anim_time*90*3+50)", "6.7128-10*math.sin(q.anim_time*90*3-70)"]
				},
				"ear_left2": {
					"rotation": [-32.5, 0, "-10*math.sin(q.anim_time*90*2)"]
				},
				"ear_left3": {
					"rotation": [-32.5, 0, "-10*math.sin(q.anim_time*90*2)"]
				},
				"torso": {
					"rotation": ["5*math.sin(q.anim_time*90*3+50)", 0, 0]
				},
				"tail": {
					"rotation": ["12.5+10*math.sin(q.anim_time*90*3)", 0, "-10*math.sin(q.anim_time*90*3)"]
				},
				"tail2": {
					"rotation": ["37.4116-5*math.sin(q.anim_time*90*3-50)", 0.9339, "-0.0383-5*math.sin(q.anim_time*90*3)"]
				},
				"tail3": {
					"rotation": ["17.5+10*math.sin(q.anim_time*90*3-50)", "-2*math.sin(q.anim_time*90*3)", "-10*math.sin(q.anim_time*90*1)"]
				},
				"arm_right": {
					"rotation": ["15.5445+2*math.sin(q.anim_time*90*3)", "-51.6588-40*math.sin(q.anim_time*90*3+60)", "-19.6149+25*math.sin(q.anim_time*90*3+40)"],
					"position": [0, "1+0.9*math.sin(q.anim_time*90*3+40)", -0.5]
				},
				"arm_right2": {
					"rotation": [0, 0, "-25+10*math.cos(q.anim_time*90*6-50)"]
				},
				"arm_right3": {
					"rotation": [0, 0, "80+math.clamp(90*math.sin(q.anim_time*90*3+50),-90,-10)"]
				},
				"arm_left": {
					"rotation": ["15.5445-2*math.sin(q.anim_time*90*3)", "51.6588+40*math.sin(q.anim_time*90*3+60)", "19.6149-25*math.sin(q.anim_time*90*3+40)"],
					"position": [0, "1+0.9*math.sin(q.anim_time*90*3+40)", -0.5]
				},
				"arm_left2": {
					"rotation": [0, 0, "25-10*math.cos(q.anim_time*90*6-50)"]
				},
				"arm_left3": {
					"rotation": [0, 0, "-80-math.clamp(90*math.sin(q.anim_time*90*3+50),-90,-10)"]
				},
				"ruff_right": {
					"rotation": ["132.5-4*math.sin(q.anim_time*90*2-50)", -12.5, 120]
				},
				"ruff_front": {
					"rotation": [22.5, 0, 0],
					"position": [0, -0.5, 0]
				},
				"ruff_left": {
					"rotation": ["137.5-4*math.sin(q.anim_time*90*2-50)", 10, -120]
				},
				"ruff_front2": {
					"rotation": [17.5, 0, 0]
				},
				"ruff_front3": {
					"rotation": ["10+5*math.sin(q.anim_time*90*2-20)", 0, 0]
				},
				"nose": {
					"rotation": [0, 0, "-2*math.sin(q.anim_time*90*2-20)"]
				},
				"tail_right": {
					"rotation": ["22.5+10*math.sin(q.anim_time*90*2)", 0, 0]
				},
				"tail_left": {
					"rotation": ["22.5-4*math.sin(q.anim_time*90*2)", 0, 0]
				},
				"ruff_back": {
					"rotation": ["-4*math.sin(q.anim_time*90*2-50)", 0, 0]
				},
				"ruff_right2": {
					"rotation": ["-4*math.sin(q.anim_time*90*2-70)", 0, 0]
				},
				"ruff_left2": {
					"rotation": ["-4*math.sin(q.anim_time*90*2-70)", 0, 0]
				},
				"ruff_back2": {
					"rotation": ["-4*math.sin(q.anim_time*90*2-70)", 0, 0]
				},
				"ruff_right3": {
					"rotation": ["-4*math.sin(q.anim_time*90*2-90)", 0, 0]
				},
				"ruff_left3": {
					"rotation": ["-4*math.sin(q.anim_time*90*2-90)", 0, 0]
				},
				"ruff_back3": {
					"rotation": ["-4*math.sin(q.anim_time*90*2-90)", 0, 0]
				}
			}
		},
		"animation.brionne.battle_idle": {
			"loop": true,
			"animation_length": 4,
			"bones": {
				"brionne": {
					"rotation": [-37.5, 0, 0],
					"position": [0, 2, -6]
				},
				"body": {
					"rotation": ["47.5+2*math.sin(q.anim_time*90*2+50)", 0, "2*math.sin(q.anim_time*90*1)"],
					"position": [0, "-7.25-0.1*math.sin(q.anim_time*90*4)", "-1.75-0.3*math.sin(q.anim_time*90*2)"]
				},
				"head": {
					"rotation": ["-7.5+4*math.sin(q.anim_time*90*2)", "0-5*math.sin(q.anim_time*90*1)", "0+10*math.sin(q.anim_time*90*1-20)"],
					"position": [0, -0.5, 0.25]
				},
				"ear_right": {
					"rotation": ["-5.3966-5*math.sin(q.anim_time*90*2-70)", 38.1507, "-21.6328+5*math.sin(q.anim_time*90*2-70)"]
				},
				"ear_right2": {
					"rotation": [-15, 0, "-10*math.sin(q.anim_time*90*2)"]
				},
				"ear_right3": {
					"rotation": [-29, 0, "-10*math.sin(q.anim_time*90*2)"]
				},
				"ear_left": {
					"rotation": ["-5.3966+5*math.sin(q.anim_time*90*2-70)", -38.15075, "21.6328+5*math.sin(q.anim_time*90*2-70)"]
				},
				"ear_left2": {
					"rotation": [-15, 0, "-10*math.sin(q.anim_time*90*2)"]
				},
				"ear_left3": {
					"rotation": [-20, 0, "-10*math.sin(q.anim_time*90*2)"]
				},
				"torso": {
					"rotation": [0, 0, "2*math.sin(q.anim_time*90*1)"]
				},
				"tail": {
					"rotation": ["12.5+2*math.sin(q.anim_time*90*2)", 0, "-10*math.sin(q.anim_time*90*1)"]
				},
				"tail2": {
					"rotation": [74.91159, 0.9339, "-0.0383-5*math.sin(q.anim_time*90*1)"],
					"position": [0, -0.5, 0.75]
				},
				"tail3": {
					"rotation": [-32.5, 0, "-10*math.sin(q.anim_time*90*1)"]
				},
				"arm_right": {
					"rotation": ["-153.0932+2*math.sin(q.anim_time*90*2)", "-27.3964+40*math.sin(q.anim_time*90*1)", "-17.069+10*math.sin(q.anim_time*90*1)"],
					"position": [0, 0.25, -0.5]
				},
				"arm_right2": {
					"rotation": [0, 0, "-15+2*math.sin(q.anim_time*90*2)"]
				},
				"arm_right3": {
					"rotation": [0, 0, "2.5+40*math.sin(q.anim_time*90*1+50)"]
				},
				"arm_left": {
					"rotation": ["-153.0932+2*math.sin(q.anim_time*90*2)", "27.3964+40*math.sin(q.anim_time*90*1)", "17.069+10*math.sin(q.anim_time*90*1)"],
					"position": [0, 0.25, -0.5]
				},
				"arm_left2": {
					"rotation": [0, 0, "15+2*math.sin(q.anim_time*90*2)"]
				},
				"arm_left3": {
					"rotation": [0, 0, "-5+40*math.sin(q.anim_time*90*1+50)"]
				},
				"ruff_right": {
					"rotation": ["132.5-4*math.sin(q.anim_time*90*2-50)", -12.5, 120]
				},
				"ruff_front": {
					"rotation": [22.5, 0, 0],
					"position": [0, -0.5, 0]
				},
				"ruff_left": {
					"rotation": ["137.5-4*math.sin(q.anim_time*90*2-50)", 10, -120]
				},
				"ruff_front2": {
					"rotation": [7.5, 0, 0]
				},
				"ruff_front3": {
					"rotation": ["-10+5*math.sin(q.anim_time*90*2-20)", 0, 0]
				},
				"nose": {
					"rotation": [0, 0, "-2*math.sin(q.anim_time*90*2-20)"]
				},
				"tail_right": {
					"rotation": ["22.5-10*math.sin(q.anim_time*90*2)", 0, 0]
				},
				"tail_left": {
					"rotation": ["22.5-10*math.sin(q.anim_time*90*2)", 0, 0]
				},
				"ruff_back": {
					"rotation": ["-4*math.sin(q.anim_time*90*2-50)", 0, 0]
				},
				"ruff_right2": {
					"rotation": ["-4*math.sin(q.anim_time*90*2-70)", 0, 0]
				},
				"ruff_left2": {
					"rotation": ["-4*math.sin(q.anim_time*90*2-70)", 0, 0]
				},
				"ruff_back2": {
					"rotation": ["-4*math.sin(q.anim_time*90*2-70)", 0, 0]
				},
				"ruff_right3": {
					"rotation": ["-4*math.sin(q.anim_time*90*2-90)", 0, 0]
				},
				"ruff_left3": {
					"rotation": ["-4*math.sin(q.anim_time*90*2-90)", 0, 0]
				},
				"ruff_back3": {
					"rotation": ["15+10*math.sin(q.anim_time*90*2)", 0, 0]
				}
			}
		},
		"animation.brionne.blink": {
			"animation_length": 0.1667,
			"bones": {
				"eyelid_right": {
					"position": {
						"0.0": [-0.1, 0, -0.1],
						"0.125": [-0.1, 0, -0.1],
						"0.1667": [0, 0, 0]
					}
				},
				"eyelid_left": {
					"position": {
						"0.0": [0.1, 0, -0.1],
						"0.125": [0.1, 0, -0.1],
						"0.1667": [0, 0, 0]
					}
				}
			}
		},
		"animation.brionne.cry": {
			"animation_length": 2,
			"bones": {
				"head": {
					"rotation": {
						"0.0": {
							"post": [0, 0, 0],
							"lerp_mode": "catmullrom"
						},
						"0.125": {
							"post": [3.72265, 2.41461, -0.64858],
							"lerp_mode": "catmullrom"
						},
						"0.25": {
							"post": [-2.12338, 5.03341, 3.71724],
							"lerp_mode": "catmullrom"
						},
						"0.4167": {
							"post": [3.66813, -3.91204, -0.90362],
							"lerp_mode": "catmullrom"
						},
						"0.5833": {
							"post": [-4.54487, -12.8637, -3.06428],
							"lerp_mode": "catmullrom"
						},
						"0.7917": {
							"post": [1.20117, -5.18206, -1.17094],
							"lerp_mode": "catmullrom"
						},
						"1.0": {
							"post": [-7.26242, 2.93144, 3.13195],
							"lerp_mode": "catmullrom"
						},
						"1.2083": {
							"post": [-3.79431, -3.90541, -1.0109],
							"lerp_mode": "catmullrom"
						},
						"1.4167": {
							"post": [-9.18411, -10.93801, -5.20363],
							"lerp_mode": "catmullrom"
						},
						"1.75": {
							"post": [5.019, -4.98093, -0.43688],
							"lerp_mode": "catmullrom"
						},
						"2.0": {
							"post": [0, 0, 0],
							"lerp_mode": "catmullrom"
						}
					},
					"position": {
						"0.0": [0, 0, 0],
						"0.2083": [0, -0.5, 0],
						"2.0": [0, 0, 0]
					}
				}
			}
		},
		"animation.brionne.water_idle": {
			"loop": true,
			"animation_length": 4,
			"bones": {
				"brionne": {
					"rotation": [-37.5, 0, 0],
					"position": [0, 3, -9]
				},
				"body": {
					"rotation": ["57.5+5*math.sin(q.anim_time*90*1+50)", 0, 0],
					"position": ["0.2*math.cos(q.anim_time*90*1-30)", "-10.75+0.9*math.sin(q.anim_time*90*1-60)", 5.75]
				},
				"head": {
					"rotation": ["-20-2*math.sin(q.anim_time*90*1+50)", 0, "1*math.sin(q.anim_time*90*2+50)"],
					"position": [0, -2, -2.5]
				},
				"ear_right": {
					"rotation": ["-5.3966+20*math.sin(q.anim_time*90*1-30)", 38.1507, -21.6328]
				},
				"ear_right2": {
					"rotation": [-15, 0, 0]
				},
				"ear_right3": {
					"rotation": [-29, 0, 0]
				},
				"ear_left": {
					"rotation": ["-5.3966+20*math.sin(q.anim_time*90*1-70)", -38.15075, 21.63279]
				},
				"ear_left2": {
					"rotation": [-15, 0, 0]
				},
				"ear_left3": {
					"rotation": [-20, 0, 0]
				},
				"torso": {
					"rotation": ["60+5*math.sin(q.anim_time*90*1+20)", 0, "5*math.sin(q.anim_time*90*1+20)"]
				},
				"tail": {
					"rotation": ["2.5-2*math.sin(q.anim_time*90*1+50)", 0, 0]
				},
				"tail2": {
					"rotation": ["4.9106-10*math.sin(q.anim_time*90*1+80)", "0.9209+2*math.sin(q.anim_time*90*2+20)", -0.15993]
				},
				"tail3": {
					"rotation": ["-2.5-10*math.sin(q.anim_time*90*1+50)", 0, 0]
				},
				"tail_right": {
					"rotation": ["-15-10*math.sin(q.anim_time*90*1+50)", 0, 0]
				},
				"tail_left": {
					"rotation": ["-15+20*math.sin(q.anim_time*90*1+50)", 0, 0]
				},
				"arm_right": {
					"rotation": ["-76.1828-10*math.sin(q.anim_time*90*1)", "-7.2412-30*math.sin(q.anim_time*90*1)", "-0.4534-10*math.sin(q.anim_time*90*1)"]
				},
				"arm_right2": {
					"rotation": [0, 0, "-20*math.sin(q.anim_time*90*1-50)"]
				},
				"arm_right3": {
					"rotation": [0, 0, "-17.5-5*math.sin(q.anim_time*90*1-50)"]
				},
				"arm_left": {
					"rotation": ["-76.1828-10*math.sin(q.anim_time*90*1)", "7.2412+30*math.sin(q.anim_time*90*1)", "0.4534+10*math.sin(q.anim_time*90*1)"]
				},
				"arm_left2": {
					"rotation": [0, 0, "20*math.sin(q.anim_time*90*1-50)"]
				},
				"arm_left3": {
					"rotation": [0, 0, "17.5+5*math.sin(q.anim_time*90*1-50)"]
				},
				"ruff_right": {
					"rotation": [30, 0, 0]
				},
				"ruff_front": {
					"rotation": [5, 0, 0]
				},
				"ruff_left": {
					"rotation": [30, 0, 0]
				},
				"ruff_front2": {
					"rotation": [5, 0, 0]
				},
				"ruff_front3": {
					"rotation": [5, 0, 0]
				}
			}
		},
		"animation.brionne.water_swim": {
			"loop": true,
			"animation_length": 4,
			"bones": {
				"brionne": {
					"rotation": [-37.5, 0, 0],
					"position": [0, 3, -9]
				},
				"body": {
					"rotation": ["67.5+5*math.sin(q.anim_time*90*3-80)", "2*math.cos(q.anim_time*90*3-80)", 0],
					"position": ["-1*math.cos(q.anim_time*90*3)", "-11+2*math.sin(q.anim_time*90*3)", "4-1*math.sin(q.anim_time*90*3)"]
				},
				"head": {
					"rotation": [
						"-30-2*math.sin(q.anim_time*90*3+40)-0.3*math.cos(q.anim_time*90*10+40)",
						"-2*math.sin(q.anim_time*90*1+40)",
						"-2*math.cos(q.anim_time*90*4+40)"
					],
					"position": [0, -1.5, -3]
				},
				"ear_right": {
					"rotation": ["-39.9521-5*math.sin(q.anim_time*90*2)", 33.5436, -38.36404]
				},
				"ear_right2": {
					"rotation": [-14.13272, -5.07855, "-19.3701-5*math.sin(q.anim_time*90*8+20)"]
				},
				"ear_right3": {
					"rotation": [-29, 0, "-5*math.sin(q.anim_time*90*7)"]
				},
				"ear_left": {
					"rotation": ["-37.4811+5*math.sin(q.anim_time*90*2)", -34.72221, 44.40906]
				},
				"ear_left2": {
					"rotation": [-14.13272, 5.07855, "19.3701-5*math.sin(q.anim_time*90*8+20)"]
				},
				"ear_left3": {
					"rotation": [-20, 0, "-5*math.sin(q.anim_time*90*7)"]
				},
				"torso": {
					"rotation": ["60-10*math.sin(q.anim_time*90*3+70)", 0, "10*math.cos(q.anim_time*90*3-80)"]
				},
				"tail": {
					"rotation": ["2.5-5*math.sin(q.anim_time*90*3+20)", 0, 0]
				},
				"tail2": {
					"rotation": ["7.4106-10*math.sin(q.anim_time*90*3)", 0.92094, -0.15993]
				},
				"tail3": {
					"rotation": ["10-10*math.sin(q.anim_time*90*3-20)", 0, 0]
				},
				"tail_right": {
					"rotation": ["-2.4786-20*math.sin(q.anim_time*90*3+30)", 0.32621, 7.49294]
				},
				"tail_left": {
					"rotation": ["-4.9811-20*math.sin(q.anim_time*90*3+20)", -0.43523, -4.98107]
				},
				"arm_right": {
					"rotation": ["-4.525-10*math.sin(q.anim_time*90*3+20)", "-2.7535+10*math.sin(q.anim_time*90*3+20)", -54.21635],
					"position": [0, 0.5, 0]
				},
				"arm_right2": {
					"rotation": [0, 0, -12.5]
				},
				"arm_right3": {
					"rotation": [0, 0, -17.5]
				},
				"arm_left": {
					"rotation": ["-4.525+10*math.sin(q.anim_time*90*3+20)", "2.7535+10*math.sin(q.anim_time*90*3+20)", 54.21635],
					"position": [0, 0.5, 0]
				},
				"arm_left2": {
					"rotation": [0, 0, 12.5]
				},
				"arm_left3": {
					"rotation": [0, 0, 17.5]
				},
				"ruff_right": {
					"rotation": [30, 0, 0]
				},
				"ruff_front": {
					"rotation": [5, 0, 0]
				},
				"ruff_left": {
					"rotation": [30, 0, 0]
				},
				"ruff_front2": {
					"rotation": [5, 0, 0]
				},
				"ruff_front3": {
					"rotation": [5, 0, 0]
				}
			}
		},
		"animation.brionne.faint": {
			"loop": true,
			"animation_length": 4,
			"bones": {
				"brionne": {
					"rotation": [-37.5, 0, 0],
					"position": [0, 2, -6]
				},
				"body": {
					"rotation": {
						"0.0": [67.5, 0, 0],
						"0.375": {
							"pre": [45.18944, 20.25437, 14.97401],
							"post": [45.18944, 20.25437, 14.97401],
							"lerp_mode": "catmullrom"
						},
						"0.7083": {
							"post": [121.61765, 0, -169.41176],
							"lerp_mode": "catmullrom"
						},
						"1.0833": {
							"post": [35, 0, -360],
							"lerp_mode": "catmullrom"
						},
						"1.4583": {
							"post": [35, 0, -360],
							"lerp_mode": "catmullrom"
						},
						"1.625": [120, 0, -360],
						"1.75": [117.5, 0, -360],
						"1.9167": [120, 0, -360]
					},
					"position": {
						"0.0": [0, -6, 0],
						"0.375": {
							"pre": [0, -6, -1.5],
							"post": [0, -6, -1.5],
							"lerp_mode": "catmullrom"
						},
						"1.0833": {
							"post": [0, -4.75, -2],
							"lerp_mode": "catmullrom"
						},
						"1.4583": {
							"post": [0, -4.75, -2],
							"lerp_mode": "catmullrom"
						},
						"1.625": [0, -12.25, -2],
						"1.7083": [0, -11.75, -2],
						"1.7917": [0, -12.25, -2]
					}
				},
				"head": {
					"rotation": {
						"0.0": [-27.81908, -0.93969, -0.93969],
						"0.4583": {
							"pre": [20.18821, 16.1561, 2.84788],
							"post": [20.18821, 16.1561, 2.84788],
							"lerp_mode": "catmullrom"
						},
						"0.6667": {
							"post": [-27.85105, 23.75271, -13.399],
							"lerp_mode": "catmullrom"
						},
						"1.0833": {
							"post": [-25.31908, -0.93969, -0.93969],
							"lerp_mode": "catmullrom"
						},
						"1.4583": [-19.08786, -1.51842, -0.64768],
						"1.5833": [-97.81908, -0.93969, -0.93969],
						"1.7083": [-82.81908, -0.93969, -0.93969],
						"1.7917": [-85.31908, -0.93969, -0.93969],
						"1.9167": [-80.31908, -0.93969, -0.93969]
					},
					"position": {
						"0.0": [0, -0.5, 0.25],
						"1.2917": [0, -0.5, -0.25],
						"1.6667": [0, -0.5, -1.5],
						"1.75": [0, -0.5, -1.25],
						"1.7917": [0, -0.5, -1.5],
						"1.875": [0, -0.5, -1.25]
					}
				},
				"ear_right": {
					"rotation": {
						"0.0": [-0.69814, 38.1507, -26.33126],
						"0.5833": [-21.87884, 38.15044, -26.33079],
						"1.4583": {
							"pre": [-0.7, 38.15, -26.33],
							"post": [-0.7, 38.15, -26.33],
							"lerp_mode": "catmullrom"
						},
						"1.625": {
							"post": [-28.2, 38.15, -26.33],
							"lerp_mode": "catmullrom"
						},
						"1.7083": [21.8, 38.15, -26.33],
						"1.875": [16.8, 38.15, -26.33],
						"2.5": [29.3, 38.15, -26.33]
					}
				},
				"ear_right2": {
					"rotation": {
						"0.0": [-15, 0, 0],
						"1.6667": [-15, 0, 0],
						"1.75": [32.5, 0, 0]
					}
				},
				"ear_right3": {
					"rotation": {
						"0.0": [-29, 0, 0],
						"1.5833": [-29, 0, 0],
						"1.75": [31, 0, 0]
					}
				},
				"ear_left": {
					"rotation": {
						"0.0": [-10.09506, -38.15075, 16.93434],
						"0.5833": [30.14308, -38.15047, 16.93271],
						"1.4583": {
							"pre": [-10.1, -38.15, 16.93],
							"post": [-10.1, -38.15, 16.93],
							"lerp_mode": "catmullrom"
						},
						"1.625": {
							"post": [-15.1, -38.15, 16.93],
							"lerp_mode": "catmullrom"
						},
						"1.7083": [32.4, -38.15, 16.93],
						"1.875": [24.9, -38.15, 16.93],
						"2.5": [39.9, -38.15, 16.93]
					}
				},
				"ear_left2": {
					"rotation": {
						"0.0": [-15, 0, 0],
						"1.6667": [-15, 0, 0],
						"1.75": [17.5, 0, 0]
					}
				},
				"ear_left3": {
					"rotation": {
						"0.0": [-20, 0, 0],
						"1.5833": [-20, 0, 0],
						"1.75": [25, 0, 0]
					}
				},
				"torso": {
					"rotation": {
						"0.0": [0, 0, 0],
						"0.4167": {
							"pre": [-7.5, 0, 0],
							"post": [-7.5, 0, 0],
							"lerp_mode": "catmullrom"
						},
						"0.7083": {
							"post": [5, 0, 0],
							"lerp_mode": "catmullrom"
						},
						"0.9167": {
							"post": [4.62111, 1.91134, -22.42287],
							"lerp_mode": "catmullrom"
						},
						"1.1667": {
							"post": [0, 0, 0],
							"lerp_mode": "catmullrom"
						},
						"1.3333": {
							"post": [-10, 0, 0],
							"lerp_mode": "catmullrom"
						},
						"1.5": [0, 0, 0]
					}
				},
				"tail": {
					"rotation": {
						"0.0": [12.5, 0, 0],
						"1.4167": [12.5, 0, 0],
						"1.6667": [-2.5, 0, 0]
					},
					"position": {
						"0.0": [0, 0, 0],
						"0.9583": [0, 0, 0]
					}
				},
				"tail2": {
					"rotation": {
						"0.0": [37.41159, 0.9339, -0.0383],
						"0.375": [59.91159, 0.9339, -0.0383],
						"0.625": [-0.08841, 0.9339, -0.0383],
						"0.75": [36.41159, 0.9339, -0.0383],
						"0.8333": [27.41159, 0.9339, -0.0383],
						"1.1667": [54.91159, 0.9339, -0.0383],
						"1.2917": [30.78401, -0.08854, -1.65051],
						"1.5833": [54.91, 0.93, -0.04],
						"1.75": [-0.09, 0.93, -0.04],
						"1.875": [9.91, 0.93, -0.04],
						"2.125": [4.91, 0.93, -0.04]
					},
					"position": {
						"0.0": [0, 0, 0],
						"0.9167": [0, 0, 0],
						"1.1667": [0, 0, 1.25],
						"1.4583": [0, 0, 1.25],
						"1.5833": [0, 0, -0.25]
					}
				},
				"tail3": {
					"rotation": {
						"0.0": [-5, 0, 0],
						"0.375": [5, 0, 0],
						"0.6667": [60, 0, 0],
						"0.9167": [-15, 0, 0],
						"1.0833": [2.5, 0, 0],
						"1.2917": [26.41, 0, 0],
						"1.6667": [15, 0, 0],
						"1.875": [-12.5, 0, 0],
						"2.0833": [-5, 0, 0],
						"2.2917": [-7.5, 0, 0]
					}
				},
				"arm_right": {
					"rotation": {
						"0.0": [40.81732, -62.9692, -45.10039],
						"0.5417": [81.17982, 40.7415, -18.89067],
						"1.0833": [34.4344, -9.70376, 21.03012],
						"1.5833": [-61.1271, 0.65751, 28.05964],
						"1.6667": [-58.30714, -23.21264, 14.01943],
						"1.7917": [-59.30569, -18.93463, 16.79409],
						"2.0": [-58.30714, -23.21264, 14.01943]
					},
					"position": [0, 0.25, -0.5]
				},
				"arm_right2": {
					"rotation": {
						"0.0": [0, 0, -25],
						"0.5417": [0, 0, -50],
						"1.0833": [0, 0, -15],
						"1.6667": [0, 0, 12.5]
					}
				},
				"arm_right3": {
					"rotation": {
						"0.0": [0, 0, 57.5],
						"0.5417": [0, 0, -40],
						"1.0833": [0, 0, -27.5],
						"1.4583": [0, 0, 17.19],
						"1.6667": [0, 0, 7.5],
						"1.7917": [0, 0, 12.5],
						"1.9167": [0, 0, 7.5]
					}
				},
				"arm_left": {
					"rotation": {
						"0.0": [40.4753, 62.9692, 45.10039],
						"0.5417": [-45.76649, 66.62741, 22.12736],
						"1.0833": [30.83793, 6.79399, -18.87541],
						"1.5833": [-56.33212, -10.39883, -29.14854],
						"1.6667": [-54.3175, 20.80139, -7.98593],
						"1.7917": [-55.29676, 16.71429, -11.02862],
						"2.0": [-54.3175, 20.80139, -7.98593]
					},
					"position": [0, 0.25, -0.5]
				},
				"arm_left2": {
					"rotation": {
						"0.0": [0, 0, 25],
						"0.5417": [0, 0, 81.25],
						"1.0833": [0, 0, 12.5],
						"1.6667": [0, 0, -12.5]
					}
				},
				"arm_left3": {
					"rotation": {
						"0.0": [0, 0, -55],
						"0.5417": [0, 0, 37.5],
						"1.0833": [0, 0, 30],
						"1.4583": [0, 0, -24.69],
						"1.6667": [0, 0, -5],
						"1.7917": [0, 0, -10],
						"1.9167": [0, 0, -5]
					}
				},
				"ruff_right": {
					"rotation": [135.56418, -12.5, 120]
				},
				"ruff_front": {
					"rotation": [22.5, 0, 0],
					"position": [0, -0.5, 0]
				},
				"ruff_left": {
					"rotation": [140.56418, 10, -120]
				},
				"ruff_front2": {
					"rotation": [7.5, 0, 0]
				},
				"ruff_front3": {
					"rotation": [-34.2101, 0, 0]
				},
				"nose": {
					"rotation": [0, 0, 0.68404]
				},
				"tail_right": {
					"rotation": {
						"0.0": [22.5, 0, 0],
						"1.625": [32.5, 0, 0],
						"2.0": [5, 0, 0]
					}
				},
				"tail_left": {
					"rotation": {
						"0.0": [22.5, 0, 0],
						"1.625": [30, 0, 0],
						"2.0": [-5, 0, 0]
					}
				},
				"ruff_back": {
					"rotation": [3.06418, 0, 0]
				},
				"ruff_right2": {
					"rotation": [3.75877, 0, 0]
				},
				"ruff_left2": {
					"rotation": [3.75877, 0, 0]
				},
				"ruff_back2": {
					"rotation": [3.75877, 0, 0]
				},
				"ruff_right3": {
					"rotation": [4, 0, 0]
				},
				"ruff_left3": {
					"rotation": [4, 0, 0]
				},
				"ruff_back3": {
					"rotation": [4, 0, 0]
				},
				"eyelid_right": {
					"position": {
						"0.0": [0, 0, 0],
						"0.0417": [-0.1, 0, -0.1],
						"0.5": [-0.1, 0, -0.1],
						"0.5417": [0, 0, 0],
						"1.4583": [0, 0, 0],
						"1.5": [-0.1, 0, -0.1]
					}
				},
				"eyelid_left": {
					"position": {
						"0.0": [0, 0, 0],
						"0.0417": [0.1, 0, -0.1],
						"0.5": [0.1, 0, -0.1],
						"0.5417": [0, 0, 0],
						"1.4583": [0, 0, 0],
						"1.5": [0.1, 0, -0.1]
					}
				}
			}
		}
	}
}