{
    "type": "minecraft:crafting_shapeless",
    "ingredients": [
        {
            "item": "cobblemon:revival_herb"
        },
        {
            "item": "cobblemon:vivichoke"
        },
        {
            "item": "minecraft:sugar"
        }
    ],
    "result": {
        "item": "cobblemon:revive"
    }
}
