{
  "replace": false,
  "values": [
    "minecraft:dripstone_caves",
    "minecraft:lush_caves",
    {
      "id": "terralith:cave/andesite_caves",
      "required": false 
    },
    {
      "id": "terralith:cave/desert_caves",
      "required": false 
    },
    {
      "id": "terralith:cave/diorite_caves",
      "required": false 
    },
    {
      "id": "terralith:cave/fungal_caves",
      "required": false 
    },
    {
      "id": "terralith:cave/granite_caves",
      "required": false 
    },
    {
      "id": "terralith:cave/infested_caves",
      "required": false 
    },
    {
      "id": "terralith:cave/thermal_caves",
      "required": false 
    },
    {
      "id": "terralith:cave/underground_jungle",
      "required": false 
    }
  ]
}
