{
  "implemented": true,
  "name": "Combusken",
  "nationalPokedexNumber": 256,
  "primaryType": "fire",
  "secondaryType": "fighting",
  "abilities": [
    "blaze",
    "h:speedboost"
  ],
  "baseStats": {
    "hp": 60,
    "attack": 85,
    "defence": 60,
    "special_attack": 85,
    "special_defence": 60,
    "speed": 55
  },
  "catchRate": 45,
  "maleRatio": 0.875,
  "shoulderMountable": false,
  "baseExperienceYield": 142,
  "experienceGroup": "medium_slow",
  "eggCycles": 20,
  "eggGroups": [
    "field"
  ],
  "drops": {
    "amount": "3",
    "entries": [
      {
        "item": "minecraft:feather",
        "quantityRange": "1-2",
        "percentage": 66
      },
      {
        "item": "minecraft:chicken"
      },
      {
        "item": "cobblemon:charcoal_stick",
        "percentage": 10
      }
    ]
  },
  "moves": [
    "1:doublekick",
    "1:ember",
    "1:featherdance",
    "1:flamethrower",
    "1:growl",
    "1:quickattack",
    "1:scratch",
    "9:flamecharge",
    "12:detect",
    "14:peck",
    "15:sandattack",
    "20:aerialace",
    "25:slash",
    "30:bounce",
    "35:focusenergy",
    "40:blazekick",
    "45:bulkup",
    "47:mirrormove",
    "50:reversal",
    "53:skyuppercut",
    "55:flareblitz",
    "tm:aerialace",
    "tm:agility",
    "tm:assurance",
    "tm:attract",
    "tm:batonpass",
    "tm:blazekick",
    "tm:bodyslam",
    "tm:bounce",
    "tm:brickbreak",
    "tm:bulkup",
    "tm:captivate",
    "tm:confide",
    "tm:cut",
    "tm:dig",
    "tm:doubleteam",
    "tm:echoedvoice",
    "tm:endure",
    "tm:facade",
    "tm:fireblast",
    "tm:firepunch",
    "tm:firespin",
    "tm:flamecharge",
    "tm:flamethrower",
    "tm:flareblitz",
    "tm:fling",
    "tm:focusblast",
    "tm:focusenergy",
    "tm:focuspunch",
    "tm:frustration",
    "tm:heatwave",
    "tm:helpinghand",
    "tm:hiddenpower",
    "tm:honeclaws",
    "tm:incinerate",
    "tm:lowkick",
    "tm:lowsweep",
    "tm:megakick",
    "tm:megapunch",
    "tm:naturalgift",
    "tm:overheat",
    "tm:poisonjab",
    "tm:poweruppunch",
    "tm:protect",
    "tm:rest",
    "tm:return",
    "tm:revenge",
    "tm:reversal",
    "tm:rockslide",
    "tm:rocksmash",
    "tm:rocktomb",
    "tm:round",
    "tm:secretpower",
    "tm:shadowclaw",
    "tm:sleeptalk",
    "tm:snore",
    "tm:strength",
    "tm:substitute",
    "tm:sunnyday",
    "tm:swagger",
    "tm:swift",
    "tm:swordsdance",
    "tm:thunderpunch",
    "tm:toxic",
    "tm:willowisp",
    "tm:workup",
    "tutor:bodyslam",
    "tutor:bounce",
    "tutor:coaching",
    "tutor:counter",
    "tutor:defog",
    "tutor:doubleedge",
    "tutor:dualchop",
    "tutor:dynamicpunch",
    "tutor:endure",
    "tutor:firepledge",
    "tutor:firepunch",
    "tutor:focuspunch",
    "tutor:furycutter",
    "tutor:headbutt",
    "tutor:heatwave",
    "tutor:helpinghand",
    "tutor:lastresort",
    "tutor:lowkick",
    "tutor:megakick",
    "tutor:megapunch",
    "tutor:mimic",
    "tutor:mudslap",
    "tutor:rockslide",
    "tutor:seismictoss",
    "tutor:sleeptalk",
    "tutor:snore",
    "tutor:substitute",
    "tutor:swagger",
    "tutor:swift",
    "tutor:swordsdance",
    "tutor:thunderpunch",
    "tutor:vacuumwave"
  ],
  "labels": [
    "gen3"
  ],
  "pokedex": [
    "cobblemon.species.combusken.desc"
  ],
  "preEvolution": "torchic",
  "evolutions": [
    {
      "id": "combusken_blaziken",
      "variant": "level_up",
      "result": "blaziken",
      "consumeHeldItem": false,
      "learnableMoves": [],
      "requirements": [
        {
          "variant": "level",
          "minLevel": 36
        }
      ]
    }
  ],
  "baseScale": 0.6,
  "hitbox": {
    "width": 1,
    "height": 1.5,
    "fixed": false
  },
  "baseFriendship": 50,
  "evYield": {
    "hp": 0,
    "attack": 1,
    "defence": 0,
    "special_attack": 1,
    "special_defence": 0,
    "speed": 0
  },
  "height": 9,
  "weight": 195,
  "aspects": [],
  "cannotDynamax": false
}