{
  "implemented": true,
  "name": "Seedot",
  "nationalPokedexNumber": 273,
  "primaryType": "grass",
  "abilities": [
    "chlorophyll",
    "earlybird",
    "h:pickpocket"
  ],
  "baseStats": {
    "hp": 40,
    "attack": 40,
    "defence": 50,
    "special_attack": 30,
    "special_defence": 30,
    "speed": 30
  },
  "catchRate": 255,
  "maleRatio": 0.5,
  "shoulderMountable": false,
  "baseExperienceYield": 44,
  "experienceGroup": "medium_slow",
  "eggCycles": 15,
  "eggGroups": [
    "field",
    "grass"
  ],
  "moves": [
    "1:bide",
    "1:harden",
    "1:tackle",
    "3:absorb",
    "6:astonish",
    "9:growth",
    "12:rollout",
    "15:megadrain",
    "18:payback",
    "21:naturepower",
    "24:sunnyday",
    "27:synthesis",
    "30:suckerpunch",
    "33:explosion",
    "egg:amnesia",
    "egg:beatup",
    "egg:bulletseed",
    "egg:defog",
    "egg:falseswipe",
    "egg:foulplay",
    "egg:grassyterrain",
    "egg:leechseed",
    "egg:nastyplot",
    "egg:nightslash",
    "egg:powerswap",
    "egg:quickattack",
    "egg:razorwind",
    "egg:takedown",
    "egg:worryseed",
    "tm:amnesia",
    "tm:attract",
    "tm:beatup",
    "tm:bodyslam",
    "tm:bulletseed",
    "tm:captivate",
    "tm:confide",
    "tm:dig",
    "tm:doubleteam",
    "tm:endure",
    "tm:energyball",
    "tm:explosion",
    "tm:facade",
    "tm:falseswipe",
    "tm:flash",
    "tm:foulplay",
    "tm:frustration",
    "tm:gigadrain",
    "tm:grassknot",
    "tm:grassyterrain",
    "tm:hiddenpower",
    "tm:nastyplot",
    "tm:naturalgift",
    "tm:naturepower",
    "tm:payback",
    "tm:powerswap",
    "tm:protect",
    "tm:rest",
    "tm:retaliate",
    "tm:return",
    "tm:rocksmash",
    "tm:round",
    "tm:secretpower",
    "tm:seedbomb",
    "tm:selfdestruct",
    "tm:shadowball",
    "tm:sleeptalk",
    "tm:snore",
    "tm:solarbeam",
    "tm:substitute",
    "tm:sunnyday",
    "tm:swagger",
    "tm:swordsdance",
    "tm:toxic",
    "tutor:bide",
    "tutor:bodyslam",
    "tutor:bulletseed",
    "tutor:defensecurl",
    "tutor:defog",
    "tutor:doubleedge",
    "tutor:endure",
    "tutor:explosion",
    "tutor:foulplay",
    "tutor:gigadrain",
    "tutor:grassyglide",
    "tutor:growth",
    "tutor:harden",
    "tutor:headbutt",
    "tutor:mimic",
    "tutor:refresh",
    "tutor:rollout",
    "tutor:secretpower",
    "tutor:seedbomb",
    "tutor:selfdestruct",
    "tutor:sleeptalk",
    "tutor:snore",
    "tutor:spite",
    "tutor:substitute",
    "tutor:swagger",
    "tutor:swordsdance",
    "tutor:synthesis",
    "tutor:worryseed"
  ],
  "labels": [
    "gen3"
  ],
  "pokedex": [
    "cobblemon.species.seedot.desc"
  ],
  "evolutions": [
    {
      "id": "seedot_nuzleaf",
      "variant": "level_up",
      "result": "nuzleaf",
      "consumeHeldItem": false,
      "learnableMoves": [
        "razorleaf"
      ],
      "requirements": [
        {
          "variant": "level",
          "minLevel": 14
        }
      ]
    }
  ],
  "baseScale": 1,
  "hitbox": {
    "width": 1,
    "height": 1,
    "fixed": false
  },
  "baseFriendship": 50,
  "evYield": {
    "hp": 0,
    "attack": 0,
    "defence": 1,
    "special_attack": 0,
    "special_defence": 0,
    "speed": 0
  },
  "height": 5,
  "weight": 40,
  "aspects": [],
  "cannotDynamax": false
}